&input
    bsto = 0.0
    buttle = .true.
    ek2max = 2.5504287
    farm = .true.
    ibop = 0
    ihbug = , 0, , , , 0, , , 0
    inorb = 8
    lfixn = 20
    lrgld1 = 20
    lrgld2 = -1
    lrgle1 = 0
    lrgle2 = 9
    lrgslo = 1
    lrgsup = 1
    maxorb = 8
    mpol = 1
    ncfg = 152
    ndiag = 1
    nelc = 9
    nexp = 0
    nix = -1
    nrang2 = 40
    nset = 10
    nz = 10
    ra = 20.0
    restart = .false.
    xdr = .false.
/
  1  2  1   2
  0  2  0   1
  1  4  0   1
  1  2  0   1
  1  4  1   1
  2  4  1   1
  2  2  0   1
  2  2  1   1
  0  2  1   1
  0  4  1   1
   1  0   2  0   2  1   3  0   3  1   3  2   4  0   4  1
0 0 0
   3  4  3  4  4  4  4  4  4  4  4  4  3  3  4  4  4  4  3  3  3  3  3  4
   4  4  3  4  4  3  4  3  4  5  5  5  5  4  5  5  5  4  5  5  4  5  4  4
   5  5  5  5  4  5  5  5  4  5  5  4  5  4  4  4  4  4  4  5  5  5  4  5
   5  4  5  4  4  4  4  4  5  5  4  5  4  4  4  4  5  4  4  4  5  5  5  5
   5  6  6  6  5  6  6  5  6  5  5  5  5  5  6  6  5  6  5  5  5  5  6  5
   5  5  5  5  5  5  5  6  6  6  5  6  6  5  6  5  5  5  5  5  6  6  5  6
   5  5  5  5  6  5  5  5
  1  2  3
  2  2  5
  1  2  3  7
  2  1  5  1
  1  2  3
  2  1  6
  1  2  3  5
  2  1  5  1
  1  2  3  4
  2  1  5  1
  1  2  3  6
  2  1  5  1
  1  2  3  8
  2  1  5  1
  1  2  3  7
  2  2  4  1
  1  2  3  5
  2  2  4  1
  1  2  3  4
  2  2  4  1
  1  2  3  6
  2  2  4  1
  1  2  3  8
  2  2  4  1
  1  3  7
  2  5  2
  1  3  7
  2  6  1
  1  3  5  7
  2  5  1  1
  1  3  4  7
  2  5  1  1
  1  3  6  7
  2  5  1  1
  1  3  7  8
  2  5  1  1
  1  3  5
  2  6  1
  1  3  4
  2  6  1
  1  3  6
  2  6  1
  1  3  8
  2  6  1
  1  3  5
  2  5  2
  1  3  4  5
  2  5  1  1
  1  3  5  6
  2  5  1  1
  1  3  5  8
  2  5  1  1
  1  3  4
  2  5  2
  1  3  4  6
  2  5  1  1
  1  3  4  8
  2  5  1  1
  1  3  6
  2  5  2
  1  3  6  8
  2  5  1  1
  1  3  8
  2  5  2
  1  2  3  7
  2  1  4  2
  1  2  3  5  7
  2  1  4  1  1
  1  2  3  4  7
  2  1  4  1  1
  1  2  3  6  7
  2  1  4  1  1
  1  2  3  7  8
  2  1  4  1  1
  1  2  3  5
  2  1  4  2
  1  2  3  4  5
  2  1  4  1  1
  1  2  3  5  6
  2  1  4  1  1
  1  2  3  5  8
  2  1  4  1  1
  1  2  3  4
  2  1  4  2
  1  2  3  4  6
  2  1  4  1  1
  1  2  3  4  8
  2  1  4  1  1
  1  2  3  6
  2  1  4  2
  1  2  3  6  8
  2  1  4  1  1
  1  2  3  8
  2  1  4  2
  1  2  3  7
  2  2  3  2
  1  2  3  5  7
  2  2  3  1  1
  1  2  3  4  7
  2  2  3  1  1
  1  2  3  6  7
  2  2  3  1  1
  1  2  3  7  8
  2  2  3  1  1
  1  2  3  5
  2  2  3  2
  1  2  3  4  5
  2  2  3  1  1
  1  2  3  5  6
  2  2  3  1  1
  1  2  3  5  8
  2  2  3  1  1
  1  2  3  4
  2  2  3  2
  1  2  3  4  6
  2  2  3  1  1
  1  2  3  4  8
  2  2  3  1  1
  1  2  3  6
  2  2  3  2
  1  2  3  6  8
  2  2  3  1  1
  1  2  3  8
  2  2  3  2
  1  3  5  7
  2  4  1  2
  1  3  4  7
  2  4  1  2
  1  3  6  7
  2  4  1  2
  1  3  7  8
  2  4  2  1
  1  3  5  7
  2  4  2  1
  1  3  4  5  7
  2  4  1  1  1
  1  3  5  6  7
  2  4  1  1  1
  1  3  5  7  8
  2  4  1  1  1
  1  3  4  7
  2  4  2  1
  1  3  4  6  7
  2  4  1  1  1
  1  3  4  7  8
  2  4  1  1  1
  1  3  6  7
  2  4  2  1
  1  3  6  7  8
  2  4  1  1  1
  1  3  7  8
  2  4  1  2
  1  3  4  5
  2  4  1  2
  1  3  5  6
  2  4  2  1
  1  3  5  8
  2  4  2  1
  1  3  4  5
  2  4  2  1
  1  3  4  5  6
  2  4  1  1  1
  1  3  4  5  8
  2  4  1  1  1
  1  3  5  6
  2  4  1  2
  1  3  5  6  8
  2  4  1  1  1
  1  3  5  8
  2  4  1  2
  1  3  4  6
  2  4  2  1
  1  3  4  8
  2  4  2  1
  1  3  4  6
  2  4  1  2
  1  3  4  6  8
  2  4  1  1  1
  1  3  4  8
  2  4  1  2
  1  3  6  8
  2  4  2  1
  1  3  6  8
  2  4  1  2
  1  2  3  5  7
  2  1  3  1  2
  1  2  3  4  7
  2  1  3  1  2
  1  2  3  6  7
  2  1  3  1  2
  1  2  3  7  8
  2  1  3  2  1
  1  2  3  5  7
  2  1  3  2  1
  1  2  3  4  5  7
  2  1  3  1  1  1
  1  2  3  5  6  7
  2  1  3  1  1  1
  1  2  3  5  7  8
  2  1  3  1  1  1
  1  2  3  4  7
  2  1  3  2  1
  1  2  3  4  6  7
  2  1  3  1  1  1
  1  2  3  4  7  8
  2  1  3  1  1  1
  1  2  3  6  7
  2  1  3  2  1
  1  2  3  6  7  8
  2  1  3  1  1  1
  1  2  3  7  8
  2  1  3  1  2
  1  2  3  4  5
  2  1  3  1  2
  1  2  3  5  6
  2  1  3  2  1
  1  2  3  5  8
  2  1  3  2  1
  1  2  3  4  5
  2  1  3  2  1
  1  2  3  4  5  6
  2  1  3  1  1  1
  1  2  3  4  5  8
  2  1  3  1  1  1
  1  2  3  5  6
  2  1  3  1  2
  1  2  3  5  6  8
  2  1  3  1  1  1
  1  2  3  5  8
  2  1  3  1  2
  1  2  3  4  6
  2  1  3  2  1
  1  2  3  4  8
  2  1  3  2  1
  1  2  3  4  6
  2  1  3  1  2
  1  2  3  4  6  8
  2  1  3  1  1  1
  1  2  3  4  8
  2  1  3  1  2
  1  2  3  6  8
  2  1  3  2  1
  1  2  3  6  8
  2  1  3  1  2
  1  2  3  5  7
  2  2  2  1  2
  1  2  3  4  7
  2  2  2  1  2
  1  2  3  6  7
  2  2  2  1  2
  1  2  3  7  8
  2  2  2  2  1
  1  2  3  5  7
  2  2  2  2  1
  1  2  3  4  5  7
  2  2  2  1  1  1
  1  2  3  5  6  7
  2  2  2  1  1  1
  1  2  3  5  7  8
  2  2  2  1  1  1
  1  2  3  4  7
  2  2  2  2  1
  1  2  3  4  6  7
  2  2  2  1  1  1
  1  2  3  4  7  8
  2  2  2  1  1  1
  1  2  3  6  7
  2  2  2  2  1
  1  2  3  6  7  8
  2  2  2  1  1  1
  1  2  3  7  8
  2  2  2  1  2
  1  2  3  4  5
  2  2  2  1  2
  1  2  3  5  6
  2  2  2  2  1
  1  2  3  5  8
  2  2  2  2  1
  1  2  3  4  5
  2  2  2  2  1
  1  2  3  4  5  6
  2  2  2  1  1  1
  1  2  3  4  5  8
  2  2  2  1  1  1
  1  2  3  5  6
  2  2  2  1  2
  1  2  3  5  6  8
  2  2  2  1  1  1
  1  2  3  5  8
  2  2  2  1  2
  1  2  3  4  6
  2  2  2  2  1
  1  2  3  4  8
  2  2  2  2  1
  1  2  3  4  6
  2  2  2  1  2
  1  2  3  4  6  8
  2  2  2  1  1  1
  1  2  3  4  8
  2  2  2  1  2
  1  2  3  6  8
  2  2  2  2  1
  1  2  3  6  8
  2  2  2  1  2
  4  4  3
  4  4  3
 5
          1          1          2          2          2
    9.86116   16.78310    3.87930    8.83998    2.52757
    0.91448    0.03022    0.00507    0.06892   -0.00107
 5
          1          1          2          2          2
    9.86116   16.78310    3.87930    8.83998    2.52757
   -0.22341   -0.00647    0.52587   -0.10559    0.57763
 4
          1          2          3          4
    8.10998    3.27396    1.19982    0.55210
    0.12045   -0.42593    1.02272    0.02146
 4
          1          2          3          4
    8.15314    3.47897    2.43610    1.39278
    0.36503   -1.41422    1.78345   -0.87170
 4
          2          2          2          2
    2.57103    4.72364    1.75238    9.81100
    0.58722    0.30522    0.16718    0.01385
 2
          2          3
    3.52778    0.92661
    0.26225   -1.00075
 3
          2          3          4
    3.69501    2.55525    1.07172
    1.16577   -1.40511    0.50884
 1
          3
    3.39018
    1.00000
  2  2  0  0
  5  0  0
  0

